[gd_scene load_steps=2 format=1]

[ext_resource path="res://scenes/bricks.tscn" type="PackedScene" id=1]

[node name="brick" type="Node"]

[node name="yellow" parent="." instance=ExtResource( 1 )]

transform/pos = Vector2( 320, 144 )

[node name="yellow1" parent="." instance=ExtResource( 1 )]

transform/pos = Vector2( 352, 112 )

[node name="yellow2" parent="." instance=ExtResource( 1 )]

transform/pos = Vector2( 288, 112 )

[node name="yellow3" parent="." instance=ExtResource( 1 )]

transform/pos = Vector2( 384, 80 )

[node name="yellow4" parent="." instance=ExtResource( 1 )]

transform/pos = Vector2( 320, 80 )

[node name="yellow5" parent="." instance=ExtResource( 1 )]

transform/pos = Vector2( 256, 80 )


